﻿





         AB             ; Jonas             ; Arbeiter           ;   SP, M
         ARZ            ; Benedikt          ; Arz                ;   PH, SP
         B              ; Matthias-Joachim  ; Brock              ;   D, KU

         BAR            ; Corinna           ; Barke              ;   E, PA
         BD             ; Eicke             ; Boden              ;   PH, SP
         BE             ; Dorothee          ; Behr               ;   D, SP
         BG             ; Caterina          ; Börgers            ;   D,  KR, PL

         BI             ; Annette           ; Brink              ;   D, MU
         BK             ; Eva               ; Barkow             ;   D, I
         BN             ; Marc              ; Boenig             ;   BI, CH

         BO             ; Karsten           ; Borgmann           ;   EK, PH
         BOE            ; Miriam            ; Böhle              ;   M, kR
         BR             ; Janina            ; Behrens            ;   D, BI
         BZ             ; Benjamin          ; Bizer              ;   E, ER

         CM             ; Daniel            ; Chmela             ;   BI, KR, M, EL
         CO             ; Ines              ; Colianni           ;   M, SW
         DK             ; Manon             ; Dominke            ;   ER, GE, PA

         DO             ; Kirsten           ; Dommes             ;   BI, KU
         DP             ; Maria             ; Duran-Pielago      ;   L, IF, S
         EH             ; Ulrike            ; Ehlen              ;   PH, M
         EIS            ; Anne              ; Eichhorn-Schott    ;   E, EK

         EV             ; Gregor            ; Evers              ;   M, PH
         FG             ; Barbara           ; Feltges            ;   D, E, PK, PL, KR
         FK             ; Robert            ; Franke             ;   M, BI, SP

         FR             ; Katrin            ; Friedel            ;   E, GE
         GF             ; Markus            ; Greef              ;   D, S, L, GE
         GR             ; Dunya             ; Geers-Khawatmi     ;   E, I
         GV             ; Stefan            ; Gräve              ;   E, GE

         HE             ; Sandra            ; Hembach            ;   EK, SP
         HF             ; Ramona            ; Höfer              ;   E, KU
         HGL            ; Svenja            ; Hügel              ;   SP, D
         HL             ; Sebastian         ; Hoheisel           ;   M, PH

         HN             ; Vera              ; Höhn               ;   M, EK
         HR             ; Julia             ; Horn               ;   D, GE
         HU             ; Katharina         ; Heubel             ;   E, M

         HZ             ; Jan               ; Hötzel             ;   PH, SP
         JE             ; Alexander         ; Jedosch            ;   D, SP









         K              ; Daniel            ; Knippertz          ;   E, SW
         KA             ; Isabelle          ; Kratz              ;   D, KR
         KD             ; Dirk              ; Königsfeld         ;   KU

         KE             ; Benedikt          ; Krell              ;   M, SP
         KF             ; Ute               ; Korf               ;   ER
         KK             ; David             ; Klinke             ;   M, SP
         KL             ; Johannes          ; Klose              ;   PH, EK

         KLS            ; Andre             ; Klöters            ;   M, PS
         KN             ; Thomas            ; Knechten           ;   BI, CH
         KO             ; Christian         ; Koller             ;   E, D

         KR             ; Yvonne            ; Kreucher           ;   D, CH
         KS             ; Kathrin           ; Kessen             ;   E, BI
         KT             ; Petra             ; Kluth-Dzialdowsk   ;   D, E

         KUB            ; Jonas             ; Kubik              ;   M, PL
         KW             ; Klaudia           ; Kwickert           ;   M, SP
         LAT            ; Luisa             ; Latta              ;   BI, CH

         LC             ; Anne-Laure        ; Lacour             ;   F, SW
         LE             ; Frank             ; Lenzer             ;   E, SW
         LH             ; Ulrich            ; Lauhues            ;
         MA             ; Lydia             ; Materna            ;   F, I

         MAY            ; Maren             ; Mayer              ;   M, SP
         ME             ; Anna              ; Mehlich            ;   SP, R, MU, IF
         MI             ; Jens              ; Michaelis          ;   SP, CH

         MK             ; Anna-Muriel       ; Meckel             ;   EK, S
         ML             ; Georg             ; Müller             ;   KU, D
         MLE            ; Dennis            ; Müller             ;   D, P
         MLR            ; Matthias          ; Müller             ;   E, GE

         NE             ; Anne              ; Neuberger          ;   D, E
         NI             ; Ulf               ; Niehaus            ;   M, EW
         NO             ; Matthias          ; Nobis              ;   E, BI
         PE             ; Heiner            ; Philippek          ;   L, SP

         PET            ; Thomas            ; Peters             ;   M, IF
         PG             ; Samira            ; Prégardien         ;   CH, MU
         PT             ; Ariane            ; Paetz              ;   M, BI

         RD             ; Nils              ; Riedel             ;   BI, EK
         RS             ; Vera              ; Rössler            ;   D, PS









         RW             ; Jutta             ; Reinke-Winkhold    ;   D, KR
         S              ; Sabine            ; Staas              ;   BI
         SB             ; Svenja            ; Schöneberger       ;   PS, D

         SE             ; Anja              ; Schwieren          ;   E, F
         SG             ; Maria             ; Seliger            ;   D, EK
         SIM            ; Michael           ; Simka              ;   F, KR

         SK             ; Björn             ; Schmuck            ;   F, SP
         SN             ; Dirk              ; Steines            ;   E, SP
         SO             ; Lukas             ; Salamon            ;   E, BI

         SOM            ; Henry             ; Sommer             ;   PH, SP
         SR             ; Michael           ; Schröder           ;   M, PH
         ST             ; Bernhard          ; Streerath          ;   MU, GE
         SW             ; Kerstin           ; Schöneweiß         ;   D, MU

         TR             ; Dominik Martin    ; Trauth             ;   GE, SW
         TW             ; Daniel            ; Twillmann          ;   D, PA
         VD             ; Thekla            ; Von Dombois        ;   E, MU

         WA             ; Irmgard           ; Waltermann         ;
         WE             ; Martin            ; Welz               ;   M, MU
         WEL            ; Vincent           ; Welter             ;   BI, CH
         WH             ; Kristina          ; Würminghausen      ;   M, MU

         WL             ; Raphaela          ; Wloka              ;   D, PA
         WON            ; Lena              ; Wonneberger        ;   E, GE
         WZ             ; Inga Silke        ; Wenzel             ;   E, F


















