AB (SP,M) [6]
ARZ (PH,SP) [0]
B (D,KU) [0]
BAR (E,PA) [0]
BD (PH,SP) [0]
BE (D,SP) [5]
BG (D,KR,PL) [0]
BI (D,MU) [0]
BK (D,I) [0]
BN (BI,CH) [10]
BO (EK,PH) [0]
BOE (M,kR) [0]
BR (D,BI) [0]
BZ (E,ER) [0]
CM (BI,KR,M,EL) [0]
CO (M,SW) [0]
DK (ER,GE,PA) [0]
DO (BI,KU) [0]
DP (L,IF,S) [0]
EH (PH,M) [0]
EIS (E,EK) [0]
EV (M,PH) [0]
FG (D,E,PK,PL,KR) [3]
FK (M,BI,SP) [0]
FR (E,GE) [0]
GF (D,S,L,GE) [0]
GR (E,I) [0]
GV (E,GE) [0]
HE (EK,SP) [0]
HF (E,KU) [0]
HGL (SP,D) [0]
HL (M,PH) [0]
HN (M,EK) [0]
HR (D,GE) [0]
HU (E,M) [0]
HZ (PH,SP) [0]
JE (D,SP) [0]
K (E,SW) [0]
KA (D,KR) [0]
KD (KU) [0]
KE (M,SP) [0]
KF (ER) [0]
KK (M,SP) [0]
KL (PH,EK) [0]
KLS (M,PS) [5]
KN (BI,CH) [0]
KO (E,D) [5]
KR (D,CH) [0]
KS (E,BI) [0]
KT (D,E) [0]
KUB (M,PL) [0]
KW (M,SP) [0]
LAT (BI,CH) [0]
LC (F,SW) [0]
LE (E,SW) [3]
LH () [0]
MA (F,I) [0]
MAY (M,SP) [0]
ME (SP,R,MU,IF) [0]
MI (SP,CH) [0]
MK (EK,S) [0]
ML (KU,D) [0]
MLE (D,P) [0]
MLR (E,GE) [0]
NE (D,E) [0]
NI (M,EW) [0]
NO (E,BI) [7]
PE (L,SP) [0]
PET (M,IF) [0]
PG (CH,MU) [0]
PT (M,BI) [0]
RD (BI,EK) [0]
RS (D,PS) [0]
RW (D,KR) [9]
S (BI) [0]
SB (PS,D) [0]
SE (E,F) [0]
SG (D,EK) [0]
SIM (F,KR) [0]
SK (F,SP) [0]
SN (E,SP) [0]
SO (E,BI) [0]
SOM (PH,SP) [0]
SR (M,PH) [1]
ST (MU,GE) [0]
SW (D,MU) [0]
TR (GE,SW) [0]
TW (D,PA) [0]
VD (E,MU) [0]
WA () [0]
WE (M,MU) [0]
WEL (BI,CH) [0]
WH (M,MU) [0]
WL (D,PA) [0]
WON (E,GE) [0]
WZ (E,F) [0]
